{
    "KPlugin": {
        "BugReportUrl": "https://bugs.kde.org/enter_bug.cgi?product=systemsettings&component=kcm_proxy",
        "Description": "Configure the proxy servers used",
        "Description[ar]": "اضبط خواديم الوسطاء المستخدمة",
        "Description[bg]": "Настройване на прокси сървъра",
        "Description[ca@valencia]": "Configura els servidors intermediaris emprats",
        "Description[ca]": "Configura els servidors intermediaris emprats",
        "Description[cs]": "Nastavení proxy serverů",
        "Description[de]": "Proxy-Server einrichten",
        "Description[en_GB]": "Configure the proxy servers used",
        "Description[eo]": "Agordi la uzatajn prokurajn servilojn",
        "Description[es]": "Configurar los servidores proxy que se usan",
        "Description[eu]": "Konfiguratu erabilitako ordezkari zerbitzariak",
        "Description[fi]": "Aseta käytetyt välityspalvelimet",
        "Description[fr]": "Configurer les serveurs mandataires utilisés",
        "Description[gl]": "Configurar os servidores mandatarios usados.",
        "Description[he]": "הגדרת שרתי המתווך לשימוש",
        "Description[hu]": "A használt proxykiszolgálók beállítása",
        "Description[ia]": "Configura le servitores de proxy usate",
        "Description[is]": "Grunnstilla milliþjóna sem á að nota",
        "Description[it]": "Configura i server proxy da usare",
        "Description[ka]": "პროქსი სერვერის მორგება",
        "Description[ko]": "사용할 프록시 서버 설정",
        "Description[lt]": "Konfigūruoti naudojamus įgaliotuosius serverius",
        "Description[nl]": "Hier kunt u de Proxy-servers instellen",
        "Description[nn]": "Oppsett av mellomtenarar",
        "Description[pa]": "ਵਰਤੇ ਜਾਂਦੇ ਪਰਾਕਸੀ ਸਰਵਰਾਂ ਦੀ ਸੰਰਚਨਾ",
        "Description[pl]": "Ustawienia serwerów pośredniczących",
        "Description[pt_BR]": "Configura os servidores proxy usados",
        "Description[ru]": "Настройка соединения через прокси-сервер",
        "Description[sk]": "Nastavenie použitých proxy serverov",
        "Description[sl]": "Konfiguriraj uporabljene posredne strežnike",
        "Description[ta]": "பயன்படுத்தப்படும் பதிலி சேவையகங்களை அமையுங்கள்",
        "Description[tr]": "Vekil sunucuların kullanımını yapılandır",
        "Description[uk]": "Налаштування проксі-сервера",
        "Description[x-test]": "xxConfigure the proxy servers usedxx",
        "Description[zh_CN]": "配置使用的代理服务器",
        "Description[zh_TW]": "設定所使用的代理伺服器",
        "Icon": "preferences-system-network-proxy",
        "Name": "Proxy",
        "Name[ar]": "الوسيط",
        "Name[bg]": "Прокси сървър",
        "Name[ca@valencia]": "Servidor intermediari",
        "Name[ca]": "Servidor intermediari",
        "Name[cs]": "Proxy",
        "Name[de]": "Proxy",
        "Name[en_GB]": "Proxy",
        "Name[eo]": "Prokurilo",
        "Name[es]": "Proxy",
        "Name[eu]": "Ordezkaria",
        "Name[fi]": "Välityspalvelin",
        "Name[fr]": "Serveur mandataire",
        "Name[gl]": "Mandatario",
        "Name[he]": "מתווך",
        "Name[hu]": "Proxy",
        "Name[ia]": "Proxy",
        "Name[is]": "Milliþjónn",
        "Name[it]": "Proxy",
        "Name[ka]": "პროქსი",
        "Name[ko]": "프록시",
        "Name[lt]": "Įgaliotasis serveris",
        "Name[nl]": "Proxy",
        "Name[nn]": "Mellomtenar",
        "Name[pa]": "ਪਰਾਕਸੀ",
        "Name[pl]": "Pośrednik",
        "Name[pt_BR]": "Proxy",
        "Name[ru]": "Прокси-сервер",
        "Name[sk]": "Proxy",
        "Name[sl]": "Posrednik",
        "Name[ta]": "பதிலி",
        "Name[tr]": "Vekil",
        "Name[uk]": "Проксі",
        "Name[x-test]": "xxProxyxx",
        "Name[zh_CN]": "代理服务器",
        "Name[zh_TW]": "代理伺服器"
    },
    "X-DocPath": "kcontrol6/proxy/index.html",
    "X-KDE-Keywords": "Proxy,Proxy server,Firewall,Squid",
    "X-KDE-Keywords[ar]": "وسيط,خادم وسيط,جدار حماية,سكود",
    "X-KDE-Keywords[az]": "Proxy,Proxy server,Firewall,Squid",
    "X-KDE-Keywords[be@latin]": "Proksi,Proksi-siervier,Fajrvol,Squid",
    "X-KDE-Keywords[be]": "Проксі,Проксі-сервер,Файрвол,Squid",
    "X-KDE-Keywords[bg]": "Прокси,Прокси сървър,Защитна стена,Squid",
    "X-KDE-Keywords[bs]": "Proksi,Proksi server,Firewall,Squid",
    "X-KDE-Keywords[ca@valencia]": "Intermediari,Servidor intermediari,Tallafoc,Squid",
    "X-KDE-Keywords[ca]": "Intermediari,Servidor intermediari,Tallafoc,Squid",
    "X-KDE-Keywords[cs]": "Proxy,Server Proxy,Firewall,Squid",
    "X-KDE-Keywords[cy]": "Dirprwy,Gweinydd dirprwyol,Mur gwarchod,Squid",
    "X-KDE-Keywords[da]": "Proxy,Proxy-server,Firewall,Squid",
    "X-KDE-Keywords[de]": "Proxy-Server",
    "X-KDE-Keywords[el]": "Διαμεσολαβητής,Proxy server,Τείχος προστασίας,Squid",
    "X-KDE-Keywords[en_GB]": "Proxy,Proxy server,Firewall,Squid",
    "X-KDE-Keywords[es]": "Proxy,Servidor proxy,Cortafuegos,Squid",
    "X-KDE-Keywords[et]": "Puhver,Puhverserver,Tulemüür,Squid",
    "X-KDE-Keywords[eu]": "Proxy,Proxy zerbitzari,Suhesi,Squid",
    "X-KDE-Keywords[fi]": "Proxy,Välitys,Välityspalvelin,Firewall,Palomuuri,Squid",
    "X-KDE-Keywords[fr]": "Serveur mandataire, serveur (proxy), pare-feu, squid",
    "X-KDE-Keywords[gd]": "Proxy,Proxy server,Firewall,Squid,progsaidh,frithealaiche progsaidh,cachaileith-theine",
    "X-KDE-Keywords[gl]": "Proxy,servidor proxy,devasa,Squid",
    "X-KDE-Keywords[hu]": "Proxy,Proxy kiszolgáló,Tűzfal,Squid",
    "X-KDE-Keywords[ia]": "Proxy,Servitor de Proxy,Talia Foco,Squid",
    "X-KDE-Keywords[id]": "Proxy,Proxy server,Firewall,Squid",
    "X-KDE-Keywords[ie]": "Proxy,Servitor proxy,Firewall,Squid",
    "X-KDE-Keywords[is]": "Milliþjónn,Proxy,Eldveggur,Squid",
    "X-KDE-Keywords[it]": "Proxy,Server proxy server,Firewall,Squid",
    "X-KDE-Keywords[ka]": "Proxy,Proxy server,Firewall,Squid",
    "X-KDE-Keywords[ko]": "Proxy,Proxy server,Firewall,Squid,proxy,프록시,프록시 서버,방화벽",
    "X-KDE-Keywords[lt]": "Įgaliotasis serveris,Įgaliotasis,Tarpinis,Tarpinis serveris,Užkarda,Uzkarda,Ugniasienė,Ugniasiene,Squid",
    "X-KDE-Keywords[my]": "Proxy,Proxy server,Firewall,Squid,ကြားခံ",
    "X-KDE-Keywords[nb]": "Mellomtjener,Brannmur,Squid",
    "X-KDE-Keywords[nl]": "Proxy,proxy-server,firewall,squid",
    "X-KDE-Keywords[nn]": "proxy,proxy-server,mellomtenar,brannmur,Squid",
    "X-KDE-Keywords[pa]": "ਪ੍ਰੌਕਸੀ,ਪ੍ਰਾਕਸੀ,ਪਰਾਕਸੀ, ਪਰਾਕਸੀ ਸਰਵਰ,ਫਾਇਰਵਾਲ,ਸਕਵਿਡ",
    "X-KDE-Keywords[pl]": "Pośrednik,Serwer pośrednika,Zapora sieciowa,Squid",
    "X-KDE-Keywords[pt]": "Proxy,Servidor 'proxy','firewall',Squid",
    "X-KDE-Keywords[pt_BR]": "Proxy,Servidor proxy,Firewall,Squid",
    "X-KDE-Keywords[ro]": "Proxy,Server proxy,Firewall,Squid",
    "X-KDE-Keywords[ru]": "Proxy,Proxy server,Firewall,Squid,прокси,прокси-сервер,брандмауэр,защитный экран",
    "X-KDE-Keywords[sk]": "Proxy,Proxy server,Firewall,Squid",
    "X-KDE-Keywords[sl]": "Proxy,Posredniški strežnik,Požarni zid,Squid",
    "X-KDE-Keywords[sr@ijekavian]": "Proxy,Proxy server,Firewall,Squid,прокси,прокси сервер,Сквид,заштитни зид",
    "X-KDE-Keywords[sr@ijekavianlatin]": "Proxy,Proxy server,Firewall,Squid,proksi,proksi server,Squid,zaštitni zid",
    "X-KDE-Keywords[sr@latin]": "Proxy,Proxy server,Firewall,Squid,proksi,proksi server,Squid,zaštitni zid",
    "X-KDE-Keywords[sr]": "Proxy,Proxy server,Firewall,Squid,прокси,прокси сервер,Сквид,заштитни зид",
    "X-KDE-Keywords[sv]": "Proxy,Proxyserver,Brandvägg,Squid",
    "X-KDE-Keywords[ta]": "Proxy,Proxy server,Firewall,Squid,தீயரண்,சேவையகம்,வழங்கி,பதிலி",
    "X-KDE-Keywords[tg]": "Прокси, хизматрасони прокси, девори оташ,Squid",
    "X-KDE-Keywords[tok]": "nasin linja,linluwi,sinpin,awen,squid",
    "X-KDE-Keywords[tr]": "Vekil,Vekil sunucu,Güvenlik duvarı,Squid",
    "X-KDE-Keywords[uk]": "Proxy,Proxy server,Firewall,Squid,proxy,проксі,сервер,проксі-сервер,брандмауер,файрвол",
    "X-KDE-Keywords[vi]": "Proxy,Proxy server,Firewall,Squid,Uỷ nhiệm,Máy chủ uỷ nhiệm,Tường lửa",
    "X-KDE-Keywords[x-test]": "xxProxyxx,xxProxy serverxx,xxFirewallxx,xxSquidxx",
    "X-KDE-Keywords[zh_CN]": "Proxy,Proxy server,Firewall,Squid,代理,代理服务器,防火墙",
    "X-KDE-Keywords[zh_TW]": "Proxy,Proxy server,Firewall,Squid",
    "X-KDE-ParentApp": "kcontrol",
    "X-KDE-System-Settings-Parent-Category": "networksettings",
    "X-KDE-Weight": 40
}
