{
    "CacheThumbnail": true,
    "KPlugin": {
        "MimeTypes": [
            "image/svg+xml",
            "image/svg+xml-compressed"
        ],
        "Name": "SVG Images",
        "Name[ar]": "صور SVG",
        "Name[be]": "Выявы SVG",
        "Name[bg]": "Изображения SVG",
        "Name[ca@valencia]": "Imatges SVG",
        "Name[ca]": "Imatges SVG",
        "Name[cs]": "SVG obrázky",
        "Name[de]": "SVG-Bilder",
        "Name[en_GB]": "SVG Images",
        "Name[eo]": "SVG-bildoj",
        "Name[es]": "Imágenes SVG",
        "Name[eu]": "SVG irudiak",
        "Name[fi]": "SVG-kuvat",
        "Name[fr]": "Images « SVG »",
        "Name[gl]": "Imaxes SVG",
        "Name[he]": "תמונות SVG",
        "Name[hu]": "SVG-képek",
        "Name[ia]": "Imagines SVG",
        "Name[ie]": "Images SVG",
        "Name[is]": "SVG-myndir",
        "Name[it]": "Immagini SVG",
        "Name[ka]": "SVG გამოსახულებები",
        "Name[ko]": "SVG 그림",
        "Name[lt]": "SVG paveikslai",
        "Name[nl]": "SVG-afbeeldingen",
        "Name[nn]": "SVG-bilete",
        "Name[pa]": "SVG ਚਿੱਤਰ",
        "Name[pl]": "Obrazy SVG",
        "Name[pt]": "Imagens SVG",
        "Name[pt_BR]": "Imagens SVG",
        "Name[ru]": "Изображения SVG",
        "Name[sk]": "Obrázky SVG",
        "Name[sl]": "Slike SVG",
        "Name[sv]": "SVG-bilder",
        "Name[ta]": "SVG படங்கள்",
        "Name[tr]": "SVG Görselleri",
        "Name[uk]": "Зображення SVG",
        "Name[vi]": "Ảnh SVG",
        "Name[x-test]": "xxSVG Imagesxx",
        "Name[zh_CN]": "SVG 图像",
        "Name[zh_TW]": "SVG 影像"
    }
}
